{
  "bootstrap": "vendor/autoload.php",
  "path": "data/benchmarks",
  "reports": {
    "consumation_of_time": {
      "extends": "default",
      "title": "The Consumation of Time",
      "description": "Benchmark how long it takes to consume time",
      "cols": [ "subject", "mode" ]
    }
  },
  "php_config": {
    "extension": [ "xdebug.so" ]
  }
}